EESchema Schematic File Version 4
EELAYER 30 0
EELAYER END
$Descr A3 16535 11693
encoding utf-8
Sheet 1 3
Title ""
Date ""
Rev ""
Comp ""
Comment1 ""
Comment2 ""
Comment3 ""
Comment4 ""
$EndDescr
$Comp
L Connector:USB_B_Micro J1
U 1 1 5D230ECC
P 9900 2650
F 0 "J1" H 9957 3117 50  0000 C CNN
F 1 "USB_B_Micro" H 9957 3026 50  0000 C CNN
F 2 "Connector_USB:USB_Micro-B_Molex_47346-0001" H 10050 2600 50  0001 C CNN
F 3 "~" H 10050 2600 50  0001 C CNN
	1    9900 2650
	1    0    0    1   
$EndComp
$Comp
L Device:Polyfuse F1
U 1 1 5D24314F
P 1200 5300
F 0 "F1" V 975 5300 50  0000 C CNN
F 1 "500mA" V 1066 5300 50  0000 C CNN
F 2 "Fuse:Fuse_1206_3216Metric" H 1250 5100 50  0001 L CNN
F 3 "~" H 1200 5300 50  0001 C CNN
	1    1200 5300
	0    1    1    0   
$EndComp
$Comp
L Device:D D1
U 1 1 5D2443E8
P 1600 5300
F 0 "D1" H 1600 5084 50  0000 C CNN
F 1 "D" H 1600 5175 50  0000 C CNN
F 2 "Diode_SMD:D_SOD-323" H 1600 5300 50  0001 C CNN
F 3 "~" H 1600 5300 50  0001 C CNN
	1    1600 5300
	-1   0    0    1   
$EndComp
Text GLabel 1000 5300 0    50   Input ~ 0
UVCC
Wire Wire Line
	1000 5300 1050 5300
Wire Wire Line
	1750 5550 1750 5300
$Comp
L Device:R R6
U 1 1 5D31AD0B
P 5300 5850
F 0 "R6" H 5370 5896 50  0000 L CNN
F 1 "1k" H 5370 5805 50  0000 L CNN
F 2 "Resistor_SMD:R_0603_1608Metric" V 5230 5850 50  0001 C CNN
F 3 "~" H 5300 5850 50  0001 C CNN
	1    5300 5850
	1    0    0    -1  
$EndComp
Text GLabel 5700 5300 2    50   Input ~ 0
+5
Wire Wire Line
	4750 5300 5300 5300
$Comp
L Device:LED D2
U 1 1 5D3384D7
P 5300 6600
F 0 "D2" H 5300 6350 50  0000 C CNN
F 1 "POWER LED" H 5300 6450 50  0000 C CNN
F 2 "LED_SMD:LED_0603_1608Metric" H 5300 6600 50  0001 C CNN
F 3 "~" H 5300 6600 50  0001 C CNN
	1    5300 6600
	0    -1   -1   0   
$EndComp
Text GLabel 10300 2650 2    50   Input ~ 0
D+
Text GLabel 10300 2550 2    50   Input ~ 0
D-
Text GLabel 10300 2850 2    50   Input ~ 0
UVCC
Wire Wire Line
	10300 2850 10200 2850
$Comp
L Connector_Generic:Conn_01x04 J7
U 1 1 5D3FC4BF
P 12600 3950
F 0 "J7" V 12472 4130 50  0000 L CNN
F 1 "Conn_01x04_OLED_SCREEN" V 12563 4130 50  0000 L CNN
F 2 "Connector_PinHeader_2.54mm:PinHeader_1x04_P2.54mm_Vertical" H 12600 3950 50  0001 C CNN
F 3 "~" H 12600 3950 50  0001 C CNN
	1    12600 3950
	-1   0    0    1   
$EndComp
Wire Wire Line
	12950 4050 12800 4050
Wire Wire Line
	12950 3950 12800 3950
Wire Wire Line
	12950 3850 12800 3850
Wire Wire Line
	12950 3750 12800 3750
$Comp
L power:GND #PWR0105
U 1 1 5D406BBB
P 12950 3750
F 0 "#PWR0105" H 12950 3500 50  0001 C CNN
F 1 "GND" V 12955 3622 50  0000 R CNN
F 2 "" H 12950 3750 50  0001 C CNN
F 3 "" H 12950 3750 50  0001 C CNN
	1    12950 3750
	0    -1   -1   0   
$EndComp
Text GLabel 12950 3850 2    50   Input ~ 0
+5
Wire Wire Line
	10200 2550 10300 2550
Wire Wire Line
	10300 2650 10200 2650
$Comp
L Connector:Conn_01x01_Female J4
U 1 1 5D7C713F
P 13900 2750
F 0 "J4" H 13928 2776 50  0000 L CNN
F 1 "Conn_01x01_Female" H 13928 2685 50  0000 L CNN
F 2 "LOGOS:Hole_2.5_mm" H 13900 2750 50  0001 C CNN
F 3 "~" H 13900 2750 50  0001 C CNN
	1    13900 2750
	-1   0    0    1   
$EndComp
$Comp
L Connector:Conn_01x01_Female J3
U 1 1 5D7CB7C8
P 13900 2850
F 0 "J3" H 13928 2876 50  0000 L CNN
F 1 "Conn_01x01_Female" H 13928 2785 50  0000 L CNN
F 2 "LOGOS:Hole_2.5_mm" H 13900 2850 50  0001 C CNN
F 3 "~" H 13900 2850 50  0001 C CNN
	1    13900 2850
	-1   0    0    1   
$EndComp
$Comp
L Connector:Conn_01x01_Female J2
U 1 1 5D7CD0BC
P 13900 2950
F 0 "J2" H 13928 2976 50  0000 L CNN
F 1 "Conn_01x01_Female" H 13928 2885 50  0000 L CNN
F 2 "LOGOS:Hole_2.5_mm" H 13900 2950 50  0001 C CNN
F 3 "~" H 13900 2950 50  0001 C CNN
	1    13900 2950
	-1   0    0    1   
$EndComp
$Comp
L power:GND #PWR0108
U 1 1 5D7CFC5F
P 14450 2850
F 0 "#PWR0108" H 14450 2600 50  0001 C CNN
F 1 "GND" V 14455 2722 50  0000 R CNN
F 2 "" H 14450 2850 50  0001 C CNN
F 3 "" H 14450 2850 50  0001 C CNN
	1    14450 2850
	0    -1   -1   0   
$EndComp
Wire Wire Line
	14100 2950 14100 2850
Connection ~ 14100 2850
Wire Wire Line
	14100 2850 14450 2850
$Comp
L Connector_Generic:Conn_01x04 J6
U 1 1 5EA8231D
P 13500 3950
F 0 "J6" V 13372 4130 50  0000 L CNN
F 1 "Conn_01x04_OLED_SCREEN" V 13463 4130 50  0000 L CNN
F 2 "Connector_PinHeader_2.54mm:PinHeader_1x04_P2.54mm_Vertical" H 13500 3950 50  0001 C CNN
F 3 "~" H 13500 3950 50  0001 C CNN
	1    13500 3950
	-1   0    0    1   
$EndComp
Wire Wire Line
	13850 4050 13700 4050
Wire Wire Line
	13850 3950 13700 3950
Wire Wire Line
	13850 3850 13700 3850
Wire Wire Line
	13850 3750 13700 3750
$Comp
L power:GND #PWR0109
U 1 1 5EA82329
P 13850 3750
F 0 "#PWR0109" H 13850 3500 50  0001 C CNN
F 1 "GND" V 13855 3622 50  0000 R CNN
F 2 "" H 13850 3750 50  0001 C CNN
F 3 "" H 13850 3750 50  0001 C CNN
	1    13850 3750
	0    -1   -1   0   
$EndComp
Text GLabel 13850 3850 2    50   Input ~ 0
+5
$Comp
L Connector:Conn_01x01_Female J5
U 1 1 5EA9574E
P 13900 2600
F 0 "J5" H 13928 2626 50  0000 L CNN
F 1 "Conn_01x01_Female" H 13928 2535 50  0000 L CNN
F 2 "LOGOS:Hole_2.5_mm" H 13900 2600 50  0001 C CNN
F 3 "~" H 13900 2600 50  0001 C CNN
	1    13900 2600
	-1   0    0    1   
$EndComp
$Comp
L Connector_Generic:Conn_01x06 UI_MOD1
U 1 1 5EABAD1F
P 10300 3950
F 0 "UI_MOD1" V 10400 3900 50  0000 L CNN
F 1 "Conn_01x06_OLED_SCREEN" V 10300 4250 50  0000 L CNN
F 2 "Connector_FFC-FPC:Hirose_FH12-6S-0.5SH_1x06-1MP_P0.50mm_Horizontal" H 10300 3950 50  0001 C CNN
F 3 "~" H 10300 3950 50  0001 C CNN
	1    10300 3950
	-1   0    0    1   
$EndComp
Wire Wire Line
	10650 4050 10500 4050
Wire Wire Line
	10650 3950 10500 3950
Wire Wire Line
	10650 3850 10500 3850
Wire Wire Line
	10650 3750 10500 3750
$Comp
L power:GND #PWR0110
U 1 1 5EABAD2B
P 10650 3650
F 0 "#PWR0110" H 10650 3400 50  0001 C CNN
F 1 "GND" V 10655 3522 50  0000 R CNN
F 2 "" H 10650 3650 50  0001 C CNN
F 3 "" H 10650 3650 50  0001 C CNN
	1    10650 3650
	0    -1   -1   0   
$EndComp
Text GLabel 10650 4150 2    50   Input ~ 0
V_DD
$Comp
L power:GND #PWR0111
U 1 1 5EAE1944
P 10250 2150
F 0 "#PWR0111" H 10250 1900 50  0001 C CNN
F 1 "GND" V 10255 2022 50  0000 R CNN
F 2 "" H 10250 2150 50  0001 C CNN
F 3 "" H 10250 2150 50  0001 C CNN
	1    10250 2150
	0    -1   -1   0   
$EndComp
Wire Wire Line
	9800 2150 9800 2250
Wire Wire Line
	9900 2150 9900 2250
Connection ~ 9900 2150
Wire Wire Line
	9900 2150 9800 2150
Wire Wire Line
	9900 2150 10250 2150
Text GLabel 12000 2750 0    50   Input ~ 0
MISO
Text GLabel 12000 2650 0    50   Input ~ 0
MOSI
Text GLabel 12000 2550 0    50   Input ~ 0
SCK
Text GLabel 12000 2850 0    50   Input ~ 0
RESET
Text GLabel 12000 2950 0    50   Input ~ 0
V_DD
$Comp
L Connector_Generic:Conn_01x06 PROG1
U 1 1 5EE535F0
P 12300 2650
F 0 "PROG1" H 12380 2642 50  0000 L CNN
F 1 "Conn_01x06" H 12380 2551 50  0000 L CNN
F 2 "Connector_PinHeader_1.00mm:PinHeader_1x06_P1.00mm_Vertical" H 12300 2650 50  0001 C CNN
F 3 "~" H 12300 2650 50  0001 C CNN
	1    12300 2650
	1    0    0    -1  
$EndComp
Wire Wire Line
	12000 2550 12100 2550
Wire Wire Line
	12000 2650 12100 2650
Wire Wire Line
	12000 2750 12100 2750
Wire Wire Line
	12000 2850 12100 2850
Wire Wire Line
	12000 2950 12100 2950
Wire Wire Line
	10650 4150 10500 4150
Wire Wire Line
	10650 3650 10500 3650
Text GLabel 10650 3950 2    50   Input ~ 0
D2-SDA
Text GLabel 10650 3850 2    50   Input ~ 0
D3-SCL
Text GLabel 13850 4050 2    50   Input ~ 0
D2-SDA
Text GLabel 13850 3950 2    50   Input ~ 0
D3-SCL
Text GLabel 12950 4050 2    50   Input ~ 0
D2-SDA
Text GLabel 12950 3950 2    50   Input ~ 0
D3-SCL
Wire Wire Line
	11950 2450 12100 2450
$Comp
L power:GND #PWR0112
U 1 1 5EC877BD
P 11950 2450
F 0 "#PWR0112" H 11950 2200 50  0001 C CNN
F 1 "GND" V 11955 2322 50  0000 R CNN
F 2 "" H 11950 2450 50  0001 C CNN
F 3 "" H 11950 2450 50  0001 C CNN
	1    11950 2450
	0    1    1    0   
$EndComp
Wire Wire Line
	5300 6900 5300 6750
Wire Wire Line
	14100 2850 14100 2750
Connection ~ 14100 2750
Wire Wire Line
	14100 2750 14100 2600
NoConn ~ 10200 2450
Connection ~ 1750 5300
$Comp
L power:GND #PWR0119
U 1 1 5F4323E8
P 10650 3750
F 0 "#PWR0119" H 10650 3500 50  0001 C CNN
F 1 "GND" V 10655 3622 50  0000 R CNN
F 2 "" H 10650 3750 50  0001 C CNN
F 3 "" H 10650 3750 50  0001 C CNN
	1    10650 3750
	0    -1   -1   0   
$EndComp
Text GLabel 10650 4050 2    50   Input ~ 0
V_DD
Wire Wire Line
	1000 5550 1750 5550
Text GLabel 1000 5550 0    50   Input ~ 0
V_DD
Wire Notes Line
	14850 5500 9450 5500
Wire Notes Line
	9450 5500 9450 1800
Wire Notes Line
	9450 1800 14850 1800
Wire Notes Line
	14850 1800 14850 5500
Text Notes 9500 5450 0    50   ~ 0
FOREIGN_CONNECTORS
$Comp
L Connector_Generic:Conn_01x06 UI_MOD2
U 1 1 5FAA0966
P 11350 3950
F 0 "UI_MOD2" V 11450 3900 50  0000 L CNN
F 1 "Conn_01x06_OLED_SCREEN" V 11350 4250 50  0000 L CNN
F 2 "Connector_FFC-FPC:Hirose_FH12-6S-0.5SH_1x06-1MP_P0.50mm_Horizontal" H 11350 3950 50  0001 C CNN
F 3 "~" H 11350 3950 50  0001 C CNN
	1    11350 3950
	-1   0    0    1   
$EndComp
Wire Wire Line
	11700 4050 11550 4050
Wire Wire Line
	11700 3950 11550 3950
Wire Wire Line
	11700 3850 11550 3850
Wire Wire Line
	11700 3750 11550 3750
$Comp
L power:GND #PWR0121
U 1 1 5FAA0970
P 11700 3650
F 0 "#PWR0121" H 11700 3400 50  0001 C CNN
F 1 "GND" V 11705 3522 50  0000 R CNN
F 2 "" H 11700 3650 50  0001 C CNN
F 3 "" H 11700 3650 50  0001 C CNN
	1    11700 3650
	0    -1   -1   0   
$EndComp
Text GLabel 11700 4150 2    50   Input ~ 0
V_DD
Wire Wire Line
	11700 4150 11550 4150
Wire Wire Line
	11700 3650 11550 3650
Text GLabel 11700 3950 2    50   Input ~ 0
D2-SDA
Text GLabel 11700 3850 2    50   Input ~ 0
D3-SCL
$Comp
L power:GND #PWR0122
U 1 1 5FAA097B
P 11700 3750
F 0 "#PWR0122" H 11700 3500 50  0001 C CNN
F 1 "GND" V 11705 3622 50  0000 R CNN
F 2 "" H 11700 3750 50  0001 C CNN
F 3 "" H 11700 3750 50  0001 C CNN
	1    11700 3750
	0    -1   -1   0   
$EndComp
Text GLabel 11700 4050 2    50   Input ~ 0
V_DD
Wire Wire Line
	1750 5300 2350 5300
$Sheet
S 2350 5050 2400 2100
U 5F51402C
F0 "MIC5219" 50
F1 "SUBM/LVRGD/ELEC/MIC5219/MIC5219_5.sch" 50
F2 "GND" I R 4750 6900 50 
F3 "+5" I R 4750 5300 50 
F4 "V_DD" I L 2350 5300 50 
$EndSheet
$Comp
L power:GND #PWR?
U 1 1 5F538ABC
P 5750 6900
F 0 "#PWR?" H 5750 6650 50  0001 C CNN
F 1 "GND" V 5755 6772 50  0000 R CNN
F 2 "" H 5750 6900 50  0001 C CNN
F 3 "" H 5750 6900 50  0001 C CNN
	1    5750 6900
	0    -1   -1   0   
$EndComp
Wire Wire Line
	5750 6900 5300 6900
Wire Wire Line
	1350 5300 1450 5300
Connection ~ 5300 6900
Wire Wire Line
	5300 6900 4750 6900
Wire Wire Line
	5300 5700 5300 5300
Connection ~ 5300 5300
Wire Wire Line
	5300 5300 5700 5300
Wire Wire Line
	5300 6000 5300 6450
$Sheet
S 2400 1550 2350 2200
U 5F679651
F0 "uC" 50
F1 "ATMEGA32U4_uC.sch" 50
F2 "+5" I L 2400 1650 50 
F3 "GND" I L 2400 1750 50 
F4 "D+" I L 2400 2250 50 
F5 "D-" I L 2400 2350 50 
F6 "RESET" I L 2400 2900 50 
F7 "MISO" I L 2400 3000 50 
F8 "MOSI" I L 2400 3100 50 
F9 "SCK" I L 2400 3200 50 
F10 "D11" I R 4750 1700 50 
F11 "D10" I R 4750 1800 50 
F12 "D9-CLK" I R 4750 1900 50 
F13 "D8" I R 4750 2000 50 
F14 "D13" I R 4750 2100 50 
F15 "D5" I R 4750 2200 50 
F16 "D4" I R 4750 2300 50 
F17 "D1-TX" I R 4750 2400 50 
F18 "D0-RX" I R 4750 2500 50 
F19 "D2-SDA" I R 4750 2600 50 
F20 "D3-SCL" I R 4750 2700 50 
F21 "D6" I R 4750 2800 50 
F22 "D12-CNT" I R 4750 2900 50 
F23 "D7" I R 4750 3000 50 
F24 "A0" I R 4750 3100 50 
F25 "A1-D19" I R 4750 3200 50 
F26 "A2-D20" I R 4750 3300 50 
F27 "A3-D21" I R 4750 3400 50 
F28 "A4" I R 4750 3500 50 
F29 "A5" I R 4750 3600 50 
$EndSheet
Text GLabel 2300 2250 0    50   Input ~ 0
D+
Text GLabel 2300 2350 0    50   Input ~ 0
D-
Wire Wire Line
	2400 2350 2300 2350
Wire Wire Line
	2300 2250 2400 2250
Text GLabel 2000 1650 0    50   Input ~ 0
+5
Wire Wire Line
	2400 1650 2000 1650
$Comp
L power:GND #PWR?
U 1 1 5F81DA1D
P 1950 1750
F 0 "#PWR?" H 1950 1500 50  0001 C CNN
F 1 "GND" V 1955 1622 50  0000 R CNN
F 2 "" H 1950 1750 50  0001 C CNN
F 3 "" H 1950 1750 50  0001 C CNN
	1    1950 1750
	0    1    1    0   
$EndComp
Wire Wire Line
	1950 1750 2400 1750
Text GLabel 2300 3000 0    50   Input ~ 0
MISO
Text GLabel 2300 3100 0    50   Input ~ 0
MOSI
Text GLabel 2300 3200 0    50   Input ~ 0
SCK
Text GLabel 2300 2900 0    50   Input ~ 0
RESET
Wire Wire Line
	2300 3200 2400 3200
Wire Wire Line
	2300 3100 2400 3100
Wire Wire Line
	2300 3000 2400 3000
Wire Wire Line
	2300 2900 2400 2900
Wire Wire Line
	4900 2600 4750 2600
Wire Wire Line
	4900 2700 4750 2700
Text GLabel 4900 2600 2    50   Input ~ 0
D2-SDA
Text GLabel 4900 2700 2    50   Input ~ 0
D3-SCL
$EndSCHEMATC
